// Jest Snapshot v1, https://goo.gl/fbAQLP

exports[`Render <App /> renders correctly 1`] = `
<App>
  <div
    className="container"
  >
    <Header>
      <header>
        <Logo>
          <span
            className="logo"
          >
            <img
              alt="logo"
              className="logoimg"
              src="logo.png"
            />
            My Contacts
          </span>
        </Logo>
      </header>
    </Header>
    <main>
      <Friends>
        <NewContact
          addContact={[Function]}
          checkHighestId={[Function]}
        >
          <div>
            <div
              className="spacer"
            />
            <button
              className="addcontact-btn"
              onClick={[Function]}
            >
              Add new contact
            </button>
          </div>
        </NewContact>
        <div
          className="spacer"
        />
        <div
          className="friends all"
        >
          <ContactCard
            addFavorite={[Function]}
            contact={
              Object {
                "city": "Faketown",
                "email": "jack.reeves@abc123.com",
                "fullName": "Jack Reeves",
                "id": 1,
                "image": "https://images.pexels.com/photos/53487/james-stewart-man-person-actor-53487.jpeg?auto=compress&cs=tinysrgb&dpr=2&h=650&w=940",
                "phone": "070-111 22 3X",
                "street": "Fakestreet 21",
                "zipcode": "234 09",
              }
            }
            key="0"
            removeContact={[Function]}
            removeFavorite={[Function]}
            toggleEditMode={[Function]}
          >
            <div
              className="friend"
            >
              <div
                className="friend_img"
              >
                <img
                  alt="Jack Reeves"
                  className="photo"
                  src="https://images.pexels.com/photos/53487/james-stewart-man-person-actor-53487.jpeg?auto=compress&cs=tinysrgb&dpr=2&h=650&w=940"
                />
              </div>
              <div
                className="desc"
              >
                <h3
                  className="fullname"
                >
                  Jack Reeves
                </h3>
                <p
                  className="email"
                >
                  jack.reeves@abc123.com
                </p>
                <p
                  className="phone"
                >
                  070-111 22 3X
                </p>
                <p
                  className="street"
                >
                  Fakestreet 21
                </p>
                <div>
                  <span
                    className="zipcode"
                  >
                    234 09
                     
                  </span>
                  <span
                    className="city"
                  >
                    Faketown
                  </span>
                </div>
                <div
                  className="actions"
                >
                  <button
                    className="favorite-btn"
                    onClick={[Function]}
                  >
                    <img
                      alt="favorize"
                      className="icon"
                      src="unfavorize.png"
                    />
                    Favorize
                  </button>
                  <button
                    className="delete remove"
                    onClick={[Function]}
                  >
                    <img
                      alt="delete"
                      className="icon"
                      src="delete.png"
                    />
                    Delete
                  </button>
                  <button
                    className="btn edit"
                    onClick={[Function]}
                  >
                    <img
                      alt="delete"
                      className="icon"
                      src="edit.png"
                    />
                    Edit
                  </button>
                </div>
              </div>
            </div>
          </ContactCard>
          <ContactCard
            addFavorite={[Function]}
            contact={
              Object {
                "city": "Faketown",
                "email": "nancy.stewart@abc123.com",
                "fullName": "Nancy Stewart",
                "id": 2,
                "image": "https://images.pexels.com/photos/1124724/pexels-photo-1124724.jpeg?auto=compress&cs=tinysrgb&dpr=2&h=650&w=940",
                "phone": "070-000 11 2X",
                "street": "Fakestreet 21",
                "zipcode": "234 09",
              }
            }
            key="1"
            removeContact={[Function]}
            removeFavorite={[Function]}
            toggleEditMode={[Function]}
          >
            <div
              className="friend"
            >
              <div
                className="friend_img"
              >
                <img
                  alt="Nancy Stewart"
                  className="photo"
                  src="https://images.pexels.com/photos/1124724/pexels-photo-1124724.jpeg?auto=compress&cs=tinysrgb&dpr=2&h=650&w=940"
                />
              </div>
              <div
                className="desc"
              >
                <h3
                  className="fullname"
                >
                  Nancy Stewart
                </h3>
                <p
                  className="email"
                >
                  nancy.stewart@abc123.com
                </p>
                <p
                  className="phone"
                >
                  070-000 11 2X
                </p>
                <p
                  className="street"
                >
                  Fakestreet 21
                </p>
                <div>
                  <span
                    className="zipcode"
                  >
                    234 09
                     
                  </span>
                  <span
                    className="city"
                  >
                    Faketown
                  </span>
                </div>
                <div
                  className="actions"
                >
                  <button
                    className="favorite-btn"
                    onClick={[Function]}
                  >
                    <img
                      alt="favorize"
                      className="icon"
                      src="unfavorize.png"
                    />
                    Favorize
                  </button>
                  <button
                    className="delete remove"
                    onClick={[Function]}
                  >
                    <img
                      alt="delete"
                      className="icon"
                      src="delete.png"
                    />
                    Delete
                  </button>
                  <button
                    className="btn edit"
                    onClick={[Function]}
                  >
                    <img
                      alt="delete"
                      className="icon"
                      src="edit.png"
                    />
                    Edit
                  </button>
                </div>
              </div>
            </div>
          </ContactCard>
          <ContactCard
            addFavorite={[Function]}
            contact={
              Object {
                "city": "Faketown",
                "email": "damon.graves@abc123.com",
                "fullName": "Damon Graves",
                "id": 3,
                "image": "https://images.pexels.com/photos/34776/homeless-male-b-w-person.jpg?auto=compress&cs=tinysrgb&dpr=2&h=650&w=940",
                "phone": "070-999 88 7X",
                "street": "Fakestreet 22",
                "zipcode": "234 09",
              }
            }
            key="2"
            removeContact={[Function]}
            removeFavorite={[Function]}
            toggleEditMode={[Function]}
          >
            <div
              className="friend"
            >
              <div
                className="friend_img"
              >
                <img
                  alt="Damon Graves"
                  className="photo"
                  src="https://images.pexels.com/photos/34776/homeless-male-b-w-person.jpg?auto=compress&cs=tinysrgb&dpr=2&h=650&w=940"
                />
              </div>
              <div
                className="desc"
              >
                <h3
                  className="fullname"
                >
                  Damon Graves
                </h3>
                <p
                  className="email"
                >
                  damon.graves@abc123.com
                </p>
                <p
                  className="phone"
                >
                  070-999 88 7X
                </p>
                <p
                  className="street"
                >
                  Fakestreet 22
                </p>
                <div>
                  <span
                    className="zipcode"
                  >
                    234 09
                     
                  </span>
                  <span
                    className="city"
                  >
                    Faketown
                  </span>
                </div>
                <div
                  className="actions"
                >
                  <button
                    className="favorite-btn"
                    onClick={[Function]}
                  >
                    <img
                      alt="favorize"
                      className="icon"
                      src="unfavorize.png"
                    />
                    Favorize
                  </button>
                  <button
                    className="delete remove"
                    onClick={[Function]}
                  >
                    <img
                      alt="delete"
                      className="icon"
                      src="delete.png"
                    />
                    Delete
                  </button>
                  <button
                    className="btn edit"
                    onClick={[Function]}
                  >
                    <img
                      alt="delete"
                      className="icon"
                      src="edit.png"
                    />
                    Edit
                  </button>
                </div>
              </div>
            </div>
          </ContactCard>
          <ContactCard
            addFavorite={[Function]}
            contact={
              Object {
                "city": "Faketown",
                "email": "clarence@abc123.com",
                "fullName": "Clarence Singleton",
                "id": 4,
                "image": "https://images.pexels.com/photos/1484795/pexels-photo-1484795.jpeg?auto=compress&cs=tinysrgb&dpr=2&h=650&w=940",
                "phone": "070-323 11 0X",
                "street": "Fakestreet 23",
                "zipcode": "234 09",
              }
            }
            key="3"
            removeContact={[Function]}
            removeFavorite={[Function]}
            toggleEditMode={[Function]}
          >
            <div
              className="friend"
            >
              <div
                className="friend_img"
              >
                <img
                  alt="Clarence Singleton"
                  className="photo"
                  src="https://images.pexels.com/photos/1484795/pexels-photo-1484795.jpeg?auto=compress&cs=tinysrgb&dpr=2&h=650&w=940"
                />
              </div>
              <div
                className="desc"
              >
                <h3
                  className="fullname"
                >
                  Clarence Singleton
                </h3>
                <p
                  className="email"
                >
                  clarence@abc123.com
                </p>
                <p
                  className="phone"
                >
                  070-323 11 0X
                </p>
                <p
                  className="street"
                >
                  Fakestreet 23
                </p>
                <div>
                  <span
                    className="zipcode"
                  >
                    234 09
                     
                  </span>
                  <span
                    className="city"
                  >
                    Faketown
                  </span>
                </div>
                <div
                  className="actions"
                >
                  <button
                    className="favorite-btn"
                    onClick={[Function]}
                  >
                    <img
                      alt="favorize"
                      className="icon"
                      src="unfavorize.png"
                    />
                    Favorize
                  </button>
                  <button
                    className="delete remove"
                    onClick={[Function]}
                  >
                    <img
                      alt="delete"
                      className="icon"
                      src="delete.png"
                    />
                    Delete
                  </button>
                  <button
                    className="btn edit"
                    onClick={[Function]}
                  >
                    <img
                      alt="delete"
                      className="icon"
                      src="edit.png"
                    />
                    Edit
                  </button>
                </div>
              </div>
            </div>
          </ContactCard>
          <ContactCard
            addFavorite={[Function]}
            contact={
              Object {
                "city": "Faketown",
                "email": "willard.hudson@abc123.com",
                "fullName": "Willard Hudson",
                "id": 5,
                "image": "https://images.pexels.com/photos/2373220/pexels-photo-2373220.jpeg?auto=compress&cs=tinysrgb&dpr=2&h=650&w=940",
                "phone": "070-545 54 5X",
                "street": "Fakestreet 24",
                "zipcode": "234 09",
              }
            }
            key="4"
            removeContact={[Function]}
            removeFavorite={[Function]}
            toggleEditMode={[Function]}
          >
            <div
              className="friend"
            >
              <div
                className="friend_img"
              >
                <img
                  alt="Willard Hudson"
                  className="photo"
                  src="https://images.pexels.com/photos/2373220/pexels-photo-2373220.jpeg?auto=compress&cs=tinysrgb&dpr=2&h=650&w=940"
                />
              </div>
              <div
                className="desc"
              >
                <h3
                  className="fullname"
                >
                  Willard Hudson
                </h3>
                <p
                  className="email"
                >
                  willard.hudson@abc123.com
                </p>
                <p
                  className="phone"
                >
                  070-545 54 5X
                </p>
                <p
                  className="street"
                >
                  Fakestreet 24
                </p>
                <div>
                  <span
                    className="zipcode"
                  >
                    234 09
                     
                  </span>
                  <span
                    className="city"
                  >
                    Faketown
                  </span>
                </div>
                <div
                  className="actions"
                >
                  <button
                    className="favorite-btn"
                    onClick={[Function]}
                  >
                    <img
                      alt="favorize"
                      className="icon"
                      src="unfavorize.png"
                    />
                    Favorize
                  </button>
                  <button
                    className="delete remove"
                    onClick={[Function]}
                  >
                    <img
                      alt="delete"
                      className="icon"
                      src="delete.png"
                    />
                    Delete
                  </button>
                  <button
                    className="btn edit"
                    onClick={[Function]}
                  >
                    <img
                      alt="delete"
                      className="icon"
                      src="edit.png"
                    />
                    Edit
                  </button>
                </div>
              </div>
            </div>
          </ContactCard>
          <ContactCard
            addFavorite={[Function]}
            contact={
              Object {
                "city": "Faketown",
                "email": "estelle.adkins@abc123.com",
                "fullName": "Estelle Adkins",
                "id": 6,
                "image": "https://images.pexels.com/photos/2613260/pexels-photo-2613260.jpeg?auto=compress&cs=tinysrgb&dpr=2&h=650&w=940",
                "phone": "070-434 22 1X",
                "street": "Fakestreet 25",
                "zipcode": "234 09",
              }
            }
            key="5"
            removeContact={[Function]}
            removeFavorite={[Function]}
            toggleEditMode={[Function]}
          >
            <div
              className="friend"
            >
              <div
                className="friend_img"
              >
                <img
                  alt="Estelle Adkins"
                  className="photo"
                  src="https://images.pexels.com/photos/2613260/pexels-photo-2613260.jpeg?auto=compress&cs=tinysrgb&dpr=2&h=650&w=940"
                />
              </div>
              <div
                className="desc"
              >
                <h3
                  className="fullname"
                >
                  Estelle Adkins
                </h3>
                <p
                  className="email"
                >
                  estelle.adkins@abc123.com
                </p>
                <p
                  className="phone"
                >
                  070-434 22 1X
                </p>
                <p
                  className="street"
                >
                  Fakestreet 25
                </p>
                <div>
                  <span
                    className="zipcode"
                  >
                    234 09
                     
                  </span>
                  <span
                    className="city"
                  >
                    Faketown
                  </span>
                </div>
                <div
                  className="actions"
                >
                  <button
                    className="favorite-btn"
                    onClick={[Function]}
                  >
                    <img
                      alt="favorize"
                      className="icon"
                      src="unfavorize.png"
                    />
                    Favorize
                  </button>
                  <button
                    className="delete remove"
                    onClick={[Function]}
                  >
                    <img
                      alt="delete"
                      className="icon"
                      src="delete.png"
                    />
                    Delete
                  </button>
                  <button
                    className="btn edit"
                    onClick={[Function]}
                  >
                    <img
                      alt="delete"
                      className="icon"
                      src="edit.png"
                    />
                    Edit
                  </button>
                </div>
              </div>
            </div>
          </ContactCard>
        </div>
      </Friends>
    </main>
  </div>
</App>
`;
