
[
  {
    "id": 1,
    "image": "https://images.pexels.com/photos/53487/james-stewart-man-person-actor-53487.jpeg?auto=compress&cs=tinysrgb&dpr=2&h=650&w=940",
    "fullName": "Jack Reeves",
    "email": "jack.reeves@abc123.com",
    "phone": "070-111 22 3X",
    "street": "Fakestreet 21",
    "zipcode": "234 09",
    "city": "Faketown"
  },
  {
    "id": 2,
    "image": "https://images.pexels.com/photos/1124724/pexels-photo-1124724.jpeg?auto=compress&cs=tinysrgb&dpr=2&h=650&w=940",
    "fullName": "Nancy Stewart",
    "email": "nancy.stewart@abc123.com",
    "phone": "070-000 11 2X",
    "street": "Fakestreet 21",
    "zipcode": "234 09",
    "city": "Faketown"
  },
  {
    "id": 3,
    "image": "https://images.pexels.com/photos/34776/homeless-male-b-w-person.jpg?auto=compress&cs=tinysrgb&dpr=2&h=650&w=940",
    "fullName": "Damon Graves",
    "email": "damon.graves@abc123.com",
    "phone": "070-999 88 7X",
    "street": "Fakestreet 22",
    "zipcode": "234 09",
    "city": "Faketown"
  },
  {
    "id": 4,
    "image": "https://images.pexels.com/photos/1484795/pexels-photo-1484795.jpeg?auto=compress&cs=tinysrgb&dpr=2&h=650&w=940",
    "fullName": "Clarence Singleton",
    "email": "clarence@abc123.com",
    "phone": "070-323 11 0X",
    "street": "Fakestreet 23",
    "zipcode": "234 09",
    "city": "Faketown"
  },
  {
    "id": 5,
    "image": "https://images.pexels.com/photos/2373220/pexels-photo-2373220.jpeg?auto=compress&cs=tinysrgb&dpr=2&h=650&w=940",
    "fullName": "Willard Hudson",
    "email": "willard.hudson@abc123.com",
    "phone": "070-545 54 5X",
    "street": "Fakestreet 24",
    "zipcode": "234 09",
    "city": "Faketown"
  },
  {
    "id": 6,
    "image": "https://images.pexels.com/photos/2613260/pexels-photo-2613260.jpeg?auto=compress&cs=tinysrgb&dpr=2&h=650&w=940",
    "fullName": "Estelle Adkins",
    "email": "estelle.adkins@abc123.com",
    "phone": "070-434 22 1X",
    "street": "Fakestreet 25",
    "zipcode": "234 09",
    "city": "Faketown"
  }
]